Extract Data and Modelled Values — augment.bage_mod • bage
…
fit() Fit a model

is_fitted() See if a model has been fitted

    Examples

## specify model
mod <- mod_pois(injuries ~ age + sex + year,
                data = injuries,
                exposure = popn)

## look at prior distribution
mod |> augment()
#> ℹ Model not fitted, so values drawn straight from prior distribution.
#> # A tibble: 912 × 9
#>    age   sex    ethnicity  year             injuries  popn           .observed
#>    <fct> <chr>  <chr>     <int>         <rdbl<1000>> <int>        <rdbl<1000>>
#>  1 0-4   Female Maori      2000  22551 (28, 1859660) 35830  0.63 (0.00078, 52)
#>  2 5-9   Female Maori      2000  22724 (34, 2290327) 35120  0.65 (0.00097, 65)
#>  3 10-14 Female Maori      2000  19179 (35, 3753925) 32830  0.58 (0.0011, 114)
#>  4 15-19 Female Maori      2000  16806 (21, 5084151) 27130 0.62 (0.00077, 187)
#>  5 20-24 Female Maori      2000   12640 (7, 6635266) 24380 0.52 (0.00029, 272)
#>  6 25-29 Female Maori      2000     13831 (4, 8e+06) 24160 0.57 (0.00016, 332)
#>  7 30-34 Female Maori      2000   12724 (2, 6851652) 22560 0.56 (8.8e-05, 304)
#>  8 35-39 Female Maori      2000   11911 (1, 1.4e+07) 22230 0.54 (4.5e-05, 613)
#>  9 40-44 Female Maori      2000    9550 (1, 1.2e+07) 18130 0.53 (5.5e-05, 647)
#> 10 45-49 Female Maori      2000 7794 (0.98, 1.1e+07) 13770 0.57 (7.1e-05, 796)
#> # ℹ 902 more rows
#> # ℹ 2 more variables: .fitted <rdbl<1000>>, .expected <rdbl<1000>>

## fit model
mod <- mod |>
  fit()

## look at posterior distribution
mod |> augment()
#> # A tibble: 912 × 9
#>    age   sex    ethnicity  year injuries  popn .observed
#>    <fct> <chr>  <chr>     <int>    <int> <int>     <dbl>
#>  1 0-4   Female Maori      2000       12 35830 0.000335 
#>  2 5-9   Female Maori      2000        6 35120 0.000171 
#>  3 10-14 Female Maori      2000        3 32830 0.0000914
#>  4 15-19 Female Maori      2000        6 27130 0.000221 
#>  5 20-24 Female Maori      2000        6 24380 0.000246 
#>  6 25-29 Female Maori      2000        6 24160 0.000248 
#>  7 30-34 Female Maori      2000       12 22560 0.000532 
#>  8 35-39 Female Maori      2000        3 22230 0.000135 
#>  9 40-44 Female Maori      2000        6 18130 0.000331 
#> 10 45-49 Female Maori      2000        6 13770 0.000436 
#> # ℹ 902 more rows
#> # ℹ 2 more variables: .fitted <rdbl<1000>>, .expected <rdbl<1000>>
…
