…
``` r
set.seed(0)

## specify model
mod <- mod_pois(injuries ~ age + sex + year,
                data = nzl_injuries,
                exposure = popn)

## extract prior distribution
## of hyper-parameters
mod |>
  components()
#> ℹ Model not fitted, so values drawn straight from prior distribution.
#> # A tibble: 37 × 4
#>    term        component level                   .fitted
#>    <chr>       <chr>     <chr>              <rdbl<1000>>
#>  1 (Intercept) effect    (Intercept)  -0.027 (-1.9, 1.8)
#>  2 age         effect    0-4            -0.018 (-2, 1.9)
#>  3 age         effect    5-9           0.033 (-2.7, 3.1)
#>  4 age         effect    10-14        -0.063 (-3.4, 3.7)
#>  5 age         effect    15-19           0.019 (-4, 4.4)
#>  6 age         effect    20-24         0.099 (-4.5, 4.9)
#>  7 age         effect    25-29         0.085 (-4.4, 5.5)
#>  8 age         effect    30-34       -0.0021 (-5.3, 5.7)
#>  9 age         effect    35-39         0.025 (-5.6, 6.6)
#> 10 age         effect    40-44        -0.033 (-6.2, 6.4)
#> # ℹ 27 more rows

## fit model
mod <- mod |>
  fit()
#> Building log-posterior function...
#> Finding maximum...
#> Drawing values for hyper-parameters...

## extract posterior distribution
## of hyper-parameters
mod |>
  components()
#> # A tibble: 37 × 4
#>    term        component level                   .fitted
#>    <chr>       <chr>     <chr>              <rdbl<1000>>
#>  1 (Intercept) effect    (Intercept)  -2.5 (-4.2, -0.76)
#>  2 age         effect    0-4          -2.4 (-3.9, -0.75)
#>  3 age         effect    5-9           -3.8 (-5.3, -2.2)
#>  4 age         effect    10-14         -3.3 (-4.9, -1.7)
#>  5 age         effect    15-19        -1.5 (-3.1, 0.062)
#>  6 age         effect    20-24            -1.4 (-3, 0.2)
#>  7 age         effect    25-29          -1.5 (-3, 0.069)
#>  8 age         effect    30-34        -1.6 (-3.1, 0.032)
#>  9 age         effect    35-39       -1.6 (-3.2, -0.075)
#> 10 age         effect    40-44       -1.6 (-3.2, -0.032)
#> # ℹ 27 more rows
…
