Fit a Model — fit.bage_mod • bage
…
## extract rates
aug <- augment(mod)
aug
#> # A tibble: 912 × 9
#>    age   sex    ethnicity  year injuries  popn .observed
#>    <fct> <chr>  <chr>     <int>    <int> <int>     <dbl>
#>  1 0-4   Female Maori      2000       12 35830 0.000335 
#>  2 5-9   Female Maori      2000        6 35120 0.000171 
#>  3 10-14 Female Maori      2000        3 32830 0.0000914
#>  4 15-19 Female Maori      2000        6 27130 0.000221 
#>  5 20-24 Female Maori      2000        6 24380 0.000246 
#>  6 25-29 Female Maori      2000        6 24160 0.000248 
#>  7 30-34 Female Maori      2000       12 22560 0.000532 
#>  8 35-39 Female Maori      2000        3 22230 0.000135 
#>  9 40-44 Female Maori      2000        6 18130 0.000331 
#> 10 45-49 Female Maori      2000        6 13770 0.000436 
#> # ℹ 902 more rows
#> # ℹ 2 more variables: .fitted <rdbl<1000>>, .expected <rdbl<1000>>

## extract hyper-parameters
comp <- components(mod)
comp
#> # A tibble: 37 × 4
#>    term        component level                 .fitted
#>    <chr>       <chr>     <chr>            <rdbl<1000>>
#>  1 (Intercept) effect    (Intercept) -5.8 (-6.9, -4.7)
#>  2 age         effect    0-4                  0 (0, 0)
#>  3 age         effect    5-9         -1.3 (-1.5, -1.2)
#>  4 age         effect    10-14       -0.87 (-1, -0.75)
#>  5 age         effect    15-19       0.86 (0.76, 0.97)
#>  6 age         effect    20-24           1 (0.91, 1.1)
#>  7 age         effect    25-29       0.86 (0.75, 0.96)
#>  8 age         effect    30-34       0.75 (0.65, 0.86)
#>  9 age         effect    35-39       0.76 (0.66, 0.87)
#> 10 age         effect    40-44       0.76 (0.65, 0.86)
#> # ℹ 27 more rows
…
