…
## extract rates
aug <- augment(mod)
aug
#> # A tibble: 912 × 9
#>    age   sex    ethnicity  year injuries  popn .observed
#>    <fct> <chr>  <chr>     <int>    <int> <int>     <dbl>
#>  1 0-4   Female Maori      2000       12 35830 0.000335 
#>  2 5-9   Female Maori      2000        6 35120 0.000171 
#>  3 10-14 Female Maori      2000        3 32830 0.0000914
#>  4 15-19 Female Maori      2000        6 27130 0.000221 
#>  5 20-24 Female Maori      2000        6 24380 0.000246 
#>  6 25-29 Female Maori      2000        6 24160 0.000248 
#>  7 30-34 Female Maori      2000       12 22560 0.000532 
#>  8 35-39 Female Maori      2000        3 22230 0.000135 
#>  9 40-44 Female Maori      2000        6 18130 0.000331 
#> 10 45-49 Female Maori      2000        6 13770 0.000436 
#> # ℹ 902 more rows
#> # ℹ 2 more variables: .fitted <rdbl<1000>>, .expected <rdbl<1000>>

## extract hyper-parameters
comp <- components(mod)
comp
#> # A tibble: 37 × 4
#>    term        component level                   .fitted
#>    <chr>       <chr>     <chr>              <rdbl<1000>>
#>  1 (Intercept) effect    (Intercept)     -2.4 (-4, -0.7)
#>  2 age         effect    0-4          -2.4 (-4.2, -0.74)
#>  3 age         effect    5-9           -3.8 (-5.6, -2.1)
#>  4 age         effect    10-14         -3.4 (-5.1, -1.7)
#>  5 age         effect    15-19          -1.6 (-3.3, 0.1)
#>  6 age         effect    20-24         -1.5 (-3.3, 0.21)
#>  7 age         effect    25-29        -1.6 (-3.4, 0.089)
#>  8 age         effect    30-34        -1.7 (-3.4, 0.063)
#>  9 age         effect    35-39       -1.7 (-3.5, -0.023)
#> 10 age         effect    40-44       -1.7 (-3.5, -0.056)
#> # ℹ 27 more rows
```
