…
## forecasts
mod |>
  forecast(labels = 2019:2024)
#> `components()` for past values...
#> `components()` for future values...
#> `augment()` for future values...
#> # A tibble: 288 × 9
#>    age   sex   ethnicity  year injuries  popn .observed                  .fitted
#>    <fct> <chr> <chr>     <int>    <dbl> <int>     <dbl>             <rdbl<1000>>
#>  1 0-4   Fema… Maori      2019       NA    NA        NA 2e-04 (0.00014, 0.00026)
#>  2 0-4   Fema… Maori      2020       NA    NA        NA 2e-04 (0.00014, 0.00027)
#>  3 0-4   Fema… Maori      2021       NA    NA        NA 2e-04 (0.00013, 0.00027)
#>  4 0-4   Fema… Maori      2022       NA    NA        NA 2e-04 (0.00014, 0.00028)
#>  5 0-4   Fema… Maori      2023       NA    NA        NA 2e-04 (0.00013, 0.00027)
#>  6 0-4   Fema… Maori      2024       NA    NA        NA 2e-04 (0.00013, 0.00028)
#>  7 0-4   Fema… Non Maori  2019       NA    NA        NA 1e-04 (7.5e-05, 0.00014)
#>  8 0-4   Fema… Non Maori  2020       NA    NA        NA 1e-04 (7.3e-05, 0.00014)
#>  9 0-4   Fema… Non Maori  2021       NA    NA        NA 1e-04 (7.5e-05, 0.00015)
#> 10 0-4   Fema… Non Maori  2022       NA    NA        NA 1e-04 (7.1e-05, 0.00015)
#> # ℹ 278 more rows
#> # ℹ 1 more variable: .expected <rdbl<1000>>

## combined estimates and forecasts
mod |>
  forecast(labels = 2019:2024,
           include_estimates = TRUE)
#> `components()` for past values...
#> `components()` for future values...
#> `augment()` for future values...
#> `augment()` for past values...
#> # A tibble: 1,200 × 9
#>    age   sex    ethnicity  year injuries  popn .observed
#>    <fct> <chr>  <chr>     <int>    <dbl> <int>     <dbl>
#>  1 0-4   Female Maori      2000       12 35830 0.000335 
#>  2 5-9   Female Maori      2000        6 35120 0.000171 
#>  3 10-14 Female Maori      2000        3 32830 0.0000914
#>  4 15-19 Female Maori      2000        6 27130 0.000221 
#>  5 20-24 Female Maori      2000        6 24380 0.000246 
#>  6 25-29 Female Maori      2000        6 24160 0.000248 
#>  7 30-34 Female Maori      2000       12 22560 0.000532 
#>  8 35-39 Female Maori      2000        3 22230 0.000135 
#>  9 40-44 Female Maori      2000        6 18130 0.000331 
#> 10 45-49 Female Maori      2000        6 13770 0.000436 
#> # ℹ 1,190 more rows
#> # ℹ 2 more variables: .fitted <rdbl<1000>>, .expected <rdbl<1000>>
…
data_forecast <- nzl_injuries |>
  filter(year > 2015) |>
  mutate(injuries = NA)
mod_pois(injuries ~ age * sex + ethnicity + year,
         data = data_historical,
         exposure = popn) |>
  fit() |>
  forecast(newdata = data_forecast)
#> Building log-posterior function...
#> Finding maximum...
#> Drawing values for hyper-parameters...
#> `components()` for past values...
#> `components()` for future values...
#> `augment()` for future values...
#> # A tibble: 144 × 9
#>    age   sex    ethnicity  year     injuries  popn .observed
#>    <fct> <chr>  <chr>     <int> <rdbl<1000>> <int>     <dbl>
#>  1 0-4   Female Maori      2016    8 (3, 15) 41220        NA
#>  2 5-9   Female Maori      2016     2 (0, 6) 43230        NA
#>  3 10-14 Female Maori      2016     2 (0, 6) 37640        NA
#>  4 15-19 Female Maori      2016   12 (5, 20) 36040        NA
#>  5 20-24 Female Maori      2016   10 (4, 18) 33760        NA
#>  6 25-29 Female Maori      2016    8 (3, 15) 30530        NA
#>  7 30-34 Female Maori      2016    6 (2, 12) 24480        NA
#>  8 35-39 Female Maori      2016    6 (1, 12) 23170        NA
#>  9 40-44 Female Maori      2016    6 (1, 12) 23940        NA
#> 10 45-49 Female Maori      2016    6 (2, 13) 23580        NA
#> # ℹ 134 more rows
#> # ℹ 2 more variables: .fitted <rdbl<1000>>, .expected <rdbl<1000>>
## forecast using GDP per capita in 2023 as a covariate
mod_births <- mod_pois(births ~ age * region + time,
                       data = kor_births,
                       exposure = popn) |>
  set_covariates(~ gdp_pc_2023) |>
  fit()
#> Building log-posterior function...
#> Finding maximum...
#> Drawing values for hyper-parameters...
mod_births |>
  forecast(labels = 2024:2025)
#> `components()` for past values...
#> `components()` for future values...
#> `augment()` for future values...
#> # A tibble: 288 × 10
#>    age   region             time births  popn gdp_pc_2023 dens_2020 .observed
#>    <chr> <fct>             <int>  <dbl> <int>       <dbl> <chr>         <dbl>
#>  1 10-14 Busan              2024     NA    NA        25.7 NA               NA
#>  2 10-14 Busan              2025     NA    NA        25.7 NA               NA
#>  3 10-14 Chungcheongbuk-do  2024     NA    NA        40.3 NA               NA
#>  4 10-14 Chungcheongbuk-do  2025     NA    NA        40.3 NA               NA
#>  5 10-14 Chungcheongnam-do  2024     NA    NA        50.4 NA               NA
#>  6 10-14 Chungcheongnam-do  2025     NA    NA        50.4 NA               NA
#>  7 10-14 Daegu              2024     NA    NA        22.3 NA               NA
#>  8 10-14 Daegu              2025     NA    NA        22.3 NA               NA
#>  9 10-14 Daejeon            2024     NA    NA        27.6 NA               NA
#> 10 10-14 Daejeon            2025     NA    NA        27.6 NA               NA
#> # ℹ 278 more rows
#> # ℹ 2 more variables: .fitted <rdbl<1000>>, .expected <rdbl<1000>>
```
