Use a Model to Make a Forecast — forecast.bage_mod • bage
…
## forecasts
mod |>
  forecast(labels = 2019:2024)
#> # A tibble: 288 × 9
#>    age   sex    ethnicity  year injuries  popn .observed
#>    <fct> <chr>  <chr>     <int>    <int> <int>     <dbl>
#>  1 0-4   Female Maori      2019       NA    NA        NA
#>  2 0-4   Female Maori      2020       NA    NA        NA
#>  3 0-4   Female Maori      2021       NA    NA        NA
#>  4 0-4   Female Maori      2022       NA    NA        NA
#>  5 0-4   Female Maori      2023       NA    NA        NA
#>  6 0-4   Female Maori      2024       NA    NA        NA
#>  7 0-4   Female Non Maori  2019       NA    NA        NA
#>  8 0-4   Female Non Maori  2020       NA    NA        NA
#>  9 0-4   Female Non Maori  2021       NA    NA        NA
#> 10 0-4   Female Non Maori  2022       NA    NA        NA
#> # ℹ 278 more rows
#> # ℹ 2 more variables: .fitted <rdbl<1000>>, .expected <rdbl<1000>>

## combined estimates and forecasts
mod |>
  forecast(labels = 2019:2024,
           include_estimates = TRUE)
#> # A tibble: 1,200 × 9
#>    age   sex    ethnicity  year injuries  popn .observed
#>    <fct> <chr>  <chr>     <int>    <int> <int>     <dbl>
#>  1 0-4   Female Maori      2000       12 35830 0.000335 
#>  2 5-9   Female Maori      2000        6 35120 0.000171 
#>  3 10-14 Female Maori      2000        3 32830 0.0000914
#>  4 15-19 Female Maori      2000        6 27130 0.000221 
#>  5 20-24 Female Maori      2000        6 24380 0.000246 
#>  6 25-29 Female Maori      2000        6 24160 0.000248 
#>  7 30-34 Female Maori      2000       12 22560 0.000532 
#>  8 35-39 Female Maori      2000        3 22230 0.000135 
#>  9 40-44 Female Maori      2000        6 18130 0.000331 
#> 10 45-49 Female Maori      2000        6 13770 0.000436 
#> # ℹ 1,190 more rows
#> # ℹ 2 more variables: .fitted <rdbl<1000>>, .expected <rdbl<1000>>
…
## forecast based on priors only
mod_unfitted <- mod_pois(injuries ~ age * sex + ethnicity + year,
                         data = injuries,
                         exposure = popn)
mod_unfitted |>
  forecast(labels = 2019:2024)
#> ℹ Model not fitted, so values drawn straight from prior distribution.
#> # A tibble: 288 × 9
#>    age   sex    ethnicity  year injuries  popn .observed               .fitted
#>    <fct> <chr>  <chr>     <int>    <int> <int>     <dbl>          <rdbl<1000>>
#>  1 0-4   Female Maori      2019       NA    NA        NA 0.56 (7.2e-06, 16475)
#>  2 0-4   Female Maori      2020       NA    NA        NA 0.49 (1.9e-05, 18877)
#>  3 0-4   Female Maori      2021       NA    NA        NA 0.53 (7.9e-06, 52802)
#>  4 0-4   Female Maori      2022       NA    NA        NA 0.51 (3.8e-06, 88882)
#>  5 0-4   Female Maori      2023       NA    NA        NA   0.49 (1e-05, 65947)
#>  6 0-4   Female Maori      2024       NA    NA        NA 0.57 (4.4e-06, 65858)
#>  7 0-4   Female Non Maori  2019       NA    NA        NA 0.56 (6.3e-06, 14505)
#>  8 0-4   Female Non Maori  2020       NA    NA        NA 0.68 (5.6e-06, 18252)
#>  9 0-4   Female Non Maori  2021       NA    NA        NA   0.52 (6e-06, 26505)
#> 10 0-4   Female Non Maori  2022       NA    NA        NA 0.52 (3.9e-06, 52483)
#> # ℹ 278 more rows
#> # ℹ 1 more variable: .expected <rdbl<1000>>
…
