Generate Values from Priors — generate.bage_prior_ar • bage
…
    A tibble

    See also

priors Overview of priors implemented in bage

augment(), components() Draw from posterior or prior
distribution for whole model

    Examples

rw <- RW()
generate(rw)
#> # A tibble: 500 × 3
#>        x  draw   value
#>    <int> <int>   <dbl>
#>  1     1     1  0     
#>  2     2     1 -0.264 
#>  3     3     1  0.0195
#>  4     4     1 -0.0368
#>  5     5     1 -0.284 
#>  6     6     1  0.0514
#>  7     7     1 -0.557 
#>  8     8     1  0.143 
#>  9     9     1  0.170 
#> 10    10     1  0.0578
#> # ℹ 490 more rows
…
