Create Replicate Data — replicate_data • bage
…
## when the overall model includes an rr3 data model,
## replicate data are rounded to base 3
mod_pois(injuries ~ age:sex + ethnicity + year,
         data = nzl_injuries,
         exposure = popn) |>
  set_datamod_outcome_rr3() |>
  fit() |>
  replicate_data()
#> Building log-posterior function...
#> Finding maximum...
#> Drawing values for hyper-parameters...
#> # A tibble: 18,240 × 7
#>    .replicate age   sex    ethnicity  year injuries  popn
#>    <fct>      <fct> <chr>  <chr>     <int>    <dbl> <int>
#>  1 Original   0-4   Female Maori      2000       12 35830
#>  2 Original   5-9   Female Maori      2000        6 35120
#>  3 Original   10-14 Female Maori      2000        3 32830
#>  4 Original   15-19 Female Maori      2000        6 27130
#>  5 Original   20-24 Female Maori      2000        6 24380
#>  6 Original   25-29 Female Maori      2000        6 24160
#>  7 Original   30-34 Female Maori      2000       12 22560
#>  8 Original   35-39 Female Maori      2000        3 22230
#>  9 Original   40-44 Female Maori      2000        6 18130
#> 10 Original   45-49 Female Maori      2000        6 13770
#> # ℹ 18,230 more rows
…
