Specify Miscount Data Model — set_datamod_miscount • bage
…
## original data, plus imputed values for outcome
mod |>
  augment()
#> ℹ Adding variable `.divorces` with true values for `divorces`.
#> # A tibble: 242 × 9
#>    age   sex     time divorces    .divorces population .observed
#>    <fct> <chr>  <int>    <dbl> <rdbl<1000>>      <dbl>     <dbl>
#>  1 15-19 Female  2011        0     0 (0, 1)     154460 0        
#>  2 15-19 Female  2012        6     6 (5, 7)     153060 0.0000392
#>  3 15-19 Female  2013        3     3 (2, 4)     152250 0.0000197
#>  4 15-19 Female  2014        3     3 (2, 4)     152020 0.0000197
#>  5 15-19 Female  2015        3     3 (2, 5)     152970 0.0000196
#>  6 15-19 Female  2016        3     3 (2, 4)     154170 0.0000195
#>  7 15-19 Female  2017        6     6 (5, 7)     154450 0.0000388
#>  8 15-19 Female  2018        0     0 (0, 1)     154170 0        
#>  9 15-19 Female  2019        3     3 (2, 4)     154760 0.0000194
#> 10 15-19 Female  2020        0     0 (0, 1)     154480 0        
#> # ℹ 232 more rows
#> # ℹ 2 more variables: .fitted <rdbl<1000>>, .expected <rdbl<1000>>
…
