…
``` r
births <- kor_births |>
  filter(region %in% levels(region)[1:5])
```

The data frame gives numbers of births disaggregated by age of mother,
region, and year. It also contains a numeric variable called
`gdp_pc_2023` that gives GDP per capita (in thousands of US dollars) in
2023, and a categorical variable (with levels `"Low"`, `"Medium"`, and
`"High"`) describing population density in 2020.

``` r
births
#> # A tibble: 585 × 7
#>    age   region  time births  popn gdp_pc_2023 dens_2020
#>    <chr> <fct>  <int>  <int> <int>       <dbl> <chr>    
#>  1 10-14 Busan   2011      1 89822        25.7 High     
#>  2 10-14 Busan   2012      0 83884        25.7 High     
#>  3 10-14 Busan   2013      0 79061        25.7 High     
#>  4 10-14 Busan   2014      1 74741        25.7 High     
#>  5 10-14 Busan   2015      0 68783        25.7 High     
#>  6 10-14 Busan   2016      1 64905        25.7 High     
#>  7 10-14 Busan   2017      1 64251        25.7 High     
#>  8 10-14 Busan   2018      0 63249        25.7 High     
#>  9 10-14 Busan   2019      0 62154        25.7 High     
#> 10 10-14 Busan   2020      0 63498        25.7 High     
#> # ℹ 575 more rows
```
…
Next we expand the model to allow the dragon-year effect to differ
across age groups. We create a variable that takes the values
`"baseline"` in all years, except in dragon years, when it takes the
name of the age group. We turn this variable into a factor with
`"baseline"` as its first level.

``` r
births <- births |>
  mutate(is_dragon_year_age = if_else(time == 2012, age, "baseline"),
         is_dragon_year_age = factor(is_dragon_year_age, 
                                     levels = c("baseline", unique(age))))
births |>
  filter(time %in% 2011:2013)
#> # A tibble: 135 × 9
#>    age   region   time births  popn gdp_pc_2023 dens_2020 is_dragon_year
#>    <chr> <fct>   <int>  <int> <int>       <dbl> <chr>     <lgl>         
#>  1 10-14 Busan    2011      1 89822        25.7 High      FALSE         
#>  2 10-14 Busan    2012      0 83884        25.7 High      TRUE          
#>  3 10-14 Busan    2013      0 79061        25.7 High      FALSE         
#>  4 10-14 Daegu    2011      3 75776        22.3 Medium    FALSE         
#>  5 10-14 Daegu    2012      2 70399        22.3 Medium    TRUE          
#>  6 10-14 Daegu    2013      0 66858        22.3 Medium    FALSE         
#>  7 10-14 Gwangju  2011      1 53033        26.0 Medium    FALSE         
#>  8 10-14 Gwangju  2012      3 49716        26.0 Medium    TRUE          
#>  9 10-14 Gwangju  2013      0 46918        26.0 Medium    FALSE         
#> 10 10-14 Incheon  2011      0 83927        29.3 Medium    FALSE         
#> # ℹ 125 more rows
#> # ℹ 1 more variable: is_dragon_year_age <fct>
```
…
### 3.4 Forecasting

If all the covariates in a model are fixed, then the model can be
forecasted as normal.

``` r
mod_gdp_dens |>
  forecast(labels = 2024:2025)
#> `components()` for past values...
#> `components()` for future values...
#> `augment()` for future values...
#> # A tibble: 90 × 10
#>    age   region   time births  popn gdp_pc_2023 dens_2020 .observed
#>    <chr> <fct>   <int>  <dbl> <int>       <dbl> <chr>         <dbl>
#>  1 10-14 Busan    2024     NA    NA        25.7 High             NA
#>  2 10-14 Busan    2025     NA    NA        25.7 High             NA
#>  3 10-14 Daegu    2024     NA    NA        22.3 Medium           NA
#>  4 10-14 Daegu    2025     NA    NA        22.3 Medium           NA
#>  5 10-14 Gwangju  2024     NA    NA        26.0 Medium           NA
#>  6 10-14 Gwangju  2025     NA    NA        26.0 Medium           NA
#>  7 10-14 Incheon  2024     NA    NA        29.3 Medium           NA
#>  8 10-14 Incheon  2025     NA    NA        29.3 Medium           NA
#>  9 10-14 Seoul    2024     NA    NA        43.4 High             NA
#> 10 10-14 Seoul    2025     NA    NA        43.4 High             NA
#> # ℹ 80 more rows
#> # ℹ 2 more variables: .fitted <rdbl<1000>>, .expected <rdbl<1000>>
```
…
…and supply it to
[`forecast()`](https://generics.r-lib.org/reference/forecast.html).

``` r
mod_dragon |>
  forecast(newdata = newdata)
#> `components()` for past values...
#> `components()` for future values...
#> `augment()` for future values...
#> # A tibble: 288 × 11
#>    age   region           time births  popn gdp_pc_2023 dens_2020 is_dragon_year
#>    <chr> <fct>           <int>  <dbl> <int>       <dbl> <chr>     <lgl>         
#>  1 10-14 Busan            2024     NA    NA          NA NA        FALSE         
#>  2 15-19 Busan            2024     NA    NA          NA NA        FALSE         
#>  3 20-24 Busan            2024     NA    NA          NA NA        FALSE         
#>  4 25-29 Busan            2024     NA    NA          NA NA        FALSE         
#>  5 30-34 Busan            2024     NA    NA          NA NA        FALSE         
#>  6 35-39 Busan            2024     NA    NA          NA NA        FALSE         
#>  7 40-44 Busan            2024     NA    NA          NA NA        FALSE         
#>  8 45-49 Busan            2024     NA    NA          NA NA        FALSE         
#>  9 50-54 Busan            2024     NA    NA          NA NA        FALSE         
#> 10 10-14 Chungcheongbuk…  2024     NA    NA          NA NA        FALSE         
#> # ℹ 278 more rows
#> # ℹ 3 more variables: .observed <dbl>, .fitted <rdbl<1000>>,
#> #   .expected <rdbl<1000>>
```
