5. Examples from BDEF Book • bage
…
BDEF Note

BDEF notes look like this.

2 Infant Mortality in Sweden

2.1 Aims and data

We estimate and forecast infant mortality in Swedish counties. Following standard demographic practice we define the infant mortality rate as the probability of dying during the first year of life, calculated using this year’s infant deaths and this year’s births. (See Chapter 11 of BDEF on why this definition is slightly odd.)

Data for the analysis is in the swe_infant dataset in bage:

swe_infant
#> # A tibble: 441 × 4
#>    county     time births deaths
#>    <fct>     <int>  <int>  <int>
#>  1 Stockholm  1995  22626     96
#>  2 Stockholm  1996  21354     74
#>  3 Stockholm  1997  20646     62
#>  4 Stockholm  1998  20815     81
#>  5 Stockholm  1999  20863     68
#>  6 Stockholm  2000  21837     75
#>  7 Stockholm  2001  22622     68
#>  8 Stockholm  2002  24084     70
#>  9 Stockholm  2003  25028     67
#> 10 Stockholm  2004  25779     64
#> # ℹ 431 more rows
…
2.3 Extracting parameter estimates

We extract the rates estimates.

aug_init <- mod |>
  augment()
aug_init
#> # A tibble: 441 × 7
#>    county     time births deaths .observed                 .fitted
#>    <fct>     <int>  <int>  <int>     <dbl>            <rdbl<1000>>
#>  1 Stockholm  1995  22626     96   0.00424 0.0038 (0.0033, 0.0044)
#>  2 Stockholm  1996  21354     74   0.00347   0.0035 (0.003, 0.004)
#>  3 Stockholm  1997  20646     62   0.00300 0.0032 (0.0027, 0.0037)
#>  4 Stockholm  1998  20815     81   0.00389  0.0034 (0.0029, 0.004)
#>  5 Stockholm  1999  20863     68   0.00326 0.0031 (0.0027, 0.0037)
#>  6 Stockholm  2000  21837     75   0.00343 0.0032 (0.0028, 0.0037)
#>  7 Stockholm  2001  22622     68   0.00301 0.0031 (0.0027, 0.0036)
#>  8 Stockholm  2002  24084     70   0.00291 0.0029 (0.0026, 0.0034)
#>  9 Stockholm  2003  25028     67   0.00268 0.0028 (0.0024, 0.0032)
#> 10 Stockholm  2004  25779     64   0.00248  0.0026 (0.0023, 0.003)
#> # ℹ 431 more rows
#> # ℹ 1 more variable: .expected <rdbl<1000>>

We use function draws_ci() from package rvec to calculate 95% credible intervals.

aug_init <- aug_init |>
  mutate(draws_ci(.fitted))
aug_init
#> # A tibble: 441 × 10
#>    county     time births deaths .observed                 .fitted
#>    <fct>     <int>  <int>  <int>     <dbl>            <rdbl<1000>>
#>  1 Stockholm  1995  22626     96   0.00424 0.0038 (0.0033, 0.0044)
#>  2 Stockholm  1996  21354     74   0.00347   0.0035 (0.003, 0.004)
#>  3 Stockholm  1997  20646     62   0.00300 0.0032 (0.0027, 0.0037)
#>  4 Stockholm  1998  20815     81   0.00389  0.0034 (0.0029, 0.004)
#>  5 Stockholm  1999  20863     68   0.00326 0.0031 (0.0027, 0.0037)
#>  6 Stockholm  2000  21837     75   0.00343 0.0032 (0.0028, 0.0037)
#>  7 Stockholm  2001  22622     68   0.00301 0.0031 (0.0027, 0.0036)
#>  8 Stockholm  2002  24084     70   0.00291 0.0029 (0.0026, 0.0034)
#>  9 Stockholm  2003  25028     67   0.00268 0.0028 (0.0024, 0.0032)
#> 10 Stockholm  2004  25779     64   0.00248  0.0026 (0.0023, 0.003)
#> # ℹ 431 more rows
#> # ℹ 4 more variables: .expected <rdbl<1000>>, .fitted.lower <dbl>,
#> #   .fitted.mid <dbl>, .fitted.upper <dbl>
…
components() returns values for hyper-parameters.

comp_init <- mod |>
  components()
comp_init  
#> # A tibble: 46 × 4
#>    term        component level                           .fitted
#>    <chr>       <chr>     <chr>                      <rdbl<1000>>
#>  1 (Intercept) effect    (Intercept)           -2.7 (-4.1, -1.4)
#>  2 county      effect    Stockholm          -0.16 (-0.25, -0.07)
#>  3 county      effect    Vastra Gotaland -0.095 (-0.18, -0.0054)
#>  4 county      effect    Skane            -0.099 (-0.2, 0.00067)
#>  5 county      effect    Ostergotland        -0.01 (-0.14, 0.11)
#>  6 county      effect    Jonkoping           0.013 (-0.12, 0.14)
#>  7 county      effect    Uppsala            0.0053 (-0.13, 0.13)
#>  8 county      effect    Orebro              0.07 (-0.055, 0.22)
#>  9 county      effect    Dalarna              0.04 (-0.09, 0.17)
#> 10 county      effect    Norrbotten           0.17 (0.026, 0.31)
#> # ℹ 36 more rows
…
2.5 Replicate data check

We use a replicate data check to see if, without a county-time interaction, the model is adequately representing cross-county variation in the downward trend in mortality.

Function replicate_data() generates replicate datasets.

rep_data <- replicate_data(mod)
rep_data
#> # A tibble: 8,820 × 5
#>    .replicate county     time births deaths
#>    <fct>      <fct>     <int>  <int>  <dbl>
#>  1 Original   Stockholm  1995  22626     96
#>  2 Original   Stockholm  1996  21354     74
#>  3 Original   Stockholm  1997  20646     62
#>  4 Original   Stockholm  1998  20815     81
#>  5 Original   Stockholm  1999  20863     68
#>  6 Original   Stockholm  2000  21837     75
#>  7 Original   Stockholm  2001  22622     68
#>  8 Original   Stockholm  2002  24084     70
#>  9 Original   Stockholm  2003  25028     67
#> 10 Original   Stockholm  2004  25779     64
#> # ℹ 8,810 more rows
…
2.7 Forecast

We forecast mortality rates through to 2025. By default, the forecast() function returns output that looks like a return value from augment(). When include_estimates is `TRUE, the output includes historical values.

vals_forecast <- mod |>
  forecast(labels = 2016:2025,
           include_estimates = TRUE)
#> `components()` for past values...
#> `components()` for future values...
#> `augment()` for future values...
#> `augment()` for past values...
vals_forecast
#> # A tibble: 651 × 7
#>    county     time births deaths .observed                 .fitted
#>    <fct>     <int>  <int>  <dbl>     <dbl>            <rdbl<1000>>
#>  1 Stockholm  1995  22626     96   0.00424 0.0038 (0.0033, 0.0044)
#>  2 Stockholm  1996  21354     74   0.00347   0.0035 (0.003, 0.004)
#>  3 Stockholm  1997  20646     62   0.00300 0.0032 (0.0027, 0.0037)
#>  4 Stockholm  1998  20815     81   0.00389  0.0034 (0.0029, 0.004)
#>  5 Stockholm  1999  20863     68   0.00326 0.0031 (0.0027, 0.0037)
#>  6 Stockholm  2000  21837     75   0.00343 0.0032 (0.0028, 0.0037)
#>  7 Stockholm  2001  22622     68   0.00301 0.0031 (0.0027, 0.0036)
#>  8 Stockholm  2002  24084     70   0.00291 0.0029 (0.0026, 0.0034)
#>  9 Stockholm  2003  25028     67   0.00268 0.0028 (0.0024, 0.0032)
#> 10 Stockholm  2004  25779     64   0.00248  0.0026 (0.0023, 0.003)
#> # ℹ 641 more rows
#> # ℹ 1 more variable: .expected <rdbl<1000>>
…
