Data Models • bage
…
3 More complicated error specifications

In full-sized applications, we generally want inclusion probabilities, coverage rates, standard deviations, and coefficients of variation to vary across dimensions such as age, sex, and time. The data models implemented in bage allow this sort of variation.

We illustrate the use of varying data model parameters using a slightly extended version of our births model. We use a new dataset that includes a time variable:

births_time
#> # A tibble: 27 × 4
#>    age    time births  popn
#>    <chr> <int>  <int> <int>
#>  1 10-14  2021      0 27208
#>  2 10-14  2022      0 27185
#>  3 10-14  2023      0 27084
#>  4 15-19  2021      3 25039
#>  5 15-19  2022     16 25276
#>  6 15-19  2023      9 25322
#>  7 20-24  2021    178 29008
#>  8 20-24  2022    120 26201
#>  9 20-24  2023    110 23935
#> 10 25-29  2021   1212 30826
#> # ℹ 17 more rows
…
