Overview • bage
…
augment()

augment() returns the original dataset plus some
additional columns of estimated values,

aug <- mod |>
  augment()
aug
#> # A tibble: 912 × 9
#>    age   sex    ethnicity  year injuries  popn .observed
#>    <fct> <chr>  <chr>     <int>    <int> <int>     <dbl>
#>  1 0-4   Female Maori      2000       12 35830 0.000335 
#>  2 5-9   Female Maori      2000        6 35120 0.000171 
#>  3 10-14 Female Maori      2000        3 32830 0.0000914
#>  4 15-19 Female Maori      2000        6 27130 0.000221 
#>  5 20-24 Female Maori      2000        6 24380 0.000246 
#>  6 25-29 Female Maori      2000        6 24160 0.000248 
#>  7 30-34 Female Maori      2000       12 22560 0.000532 
#>  8 35-39 Female Maori      2000        3 22230 0.000135 
#>  9 40-44 Female Maori      2000        6 18130 0.000331 
#> 10 45-49 Female Maori      2000        6 13770 0.000436 
#> # ℹ 902 more rows
#> # ℹ 2 more variables: .fitted <rdbl<1000>>, .expected <rdbl<1000>>

The columns of estimated values are .observed,
.fitted, and .expected.

aug |>
  select(.observed, .fitted, .expected) 
#> # A tibble: 912 × 3
#>    .observed                    .fitted                  .expected
#>        <dbl>               <rdbl<1000>>               <rdbl<1000>>
#>  1 0.000335    3e-04 (0.00023, 0.00038) 0.00029 (0.00026, 0.00034)
#>  2 0.000171  7.8e-05 (5.9e-05, 0.00011)   7.5e-05 (6.1e-05, 9e-05)
#>  3 0.0000914   1e-04 (7.5e-05, 0.00013)   1e-04 (8.6e-05, 0.00012)
#>  4 0.000221  0.00041 (0.00032, 0.00053)   0.00045 (4e-04, 0.00051)
#>  5 0.000246  0.00038 (0.00029, 0.00049)   4e-04 (0.00036, 0.00046)
#>  6 0.000248  0.00035 (0.00026, 0.00044) 0.00037 (0.00032, 0.00042)
#>  7 0.000532  0.00038 (0.00029, 0.00048) 0.00036 (0.00032, 0.00042)
#>  8 0.000135    0.00031 (0.00024, 4e-04)   0.00034 (3e-04, 0.00038)
#>  9 0.000331  0.00033 (0.00025, 0.00042) 0.00033 (0.00029, 0.00038)
#> 10 0.000436  0.00031 (0.00024, 0.00041)   3e-04 (0.00026, 0.00035)
#> # ℹ 902 more rows
…
.fitted is a model-based estimate of the rate that is a
compromise between .observed and
.expected.

components()

components() is used to extract values for higher-level
parameters. It returns values for all the parameters.

comp <- mod |>
  components()
comp
#> # A tibble: 89 × 4
#>    term        component level                  .fitted
#>    <chr>       <chr>     <chr>             <rdbl<1000>>
#>  1 (Intercept) effect    (Intercept) -1.7 (-3.4, 0.051)
#>  2 age         effect    0-4         -1.7 (-3.4, 0.005)
#>  3 age         effect    5-9            -3 (-4.6, -1.2)
#>  4 age         effect    10-14       -2.5 (-4.2, -0.76)
#>  5 age         effect    15-19       -0.87 (-2.6, 0.89)
#>  6 age         effect    20-24        -0.77 (-2.5, 1.1)
#>  7 age         effect    25-29           -0.9 (-2.6, 1)
#>  8 age         effect    30-34       -0.96 (-2.7, 0.95)
#>  9 age         effect    35-39       -0.99 (-2.7, 0.92)
#> 10 age         effect    40-44       -0.99 (-2.7, 0.93)
#> # ℹ 79 more rows
…
Graphing outputs

The best way to understand output from a fitted model it to graph it.
We first need to prepare data for the graph. We select values for 2018
and use the draws_ci() function from rvec
to create 95% credible intervals.

data_plot <- aug |>
  filter(year == 2018) |>
  mutate(draws_ci(.fitted))
data_plot |>
  select(starts_with(".fitted"))
#> # A tibble: 48 × 4
#>                       .fitted .fitted.lower .fitted.mid .fitted.upper
#>                  <rdbl<1000>>         <dbl>       <dbl>         <dbl>
#>  1 0.00023 (0.00017, 0.00029)     0.000167    0.000228      0.000293 
#>  2 5.8e-05 (4.1e-05, 7.7e-05)     0.0000410   0.0000580     0.0000769
#>  3 8.7e-05 (6.3e-05, 0.00012)     0.0000633   0.0000873     0.000115 
#>  4 0.00036 (0.00028, 0.00045)     0.000278    0.000360      0.000449 
#>  5 0.00035 (0.00027, 0.00044)     0.000267    0.000345      0.000438 
#>  6 0.00032 (0.00025, 0.00042)     0.000250    0.000318      0.000419 
#>  7 0.00034 (0.00026, 0.00044)     0.000259    0.000339      0.000435 
#>  8   0.00027 (2e-04, 0.00035)     0.000204    0.000273      0.000351 
#>  9 0.00028 (0.00021, 0.00037)     0.000213    0.000282      0.000366 
#> 10 0.00023 (0.00018, 0.00031)     0.000179    0.000235      0.000312 
#> # ℹ 38 more rows
…
mod_mis <- mod_pois(injuries ~ age * sex + age * ethnicity + year,
                    data = injuries_mis,
                    exposure = popn) |>
  fit()

bage creates a new variable, called
.injuries containing imputed values for the missing
outcomes.

mod_mis |>
  augment() |>
  filter(year %in% years_mis)
#> # A tibble: 240 × 10
#>    age   sex    ethnicity  year injuries    .injuries  popn .observed
#>    <fct> <chr>  <chr>     <int>    <int> <rdbl<1000>> <int>     <dbl>
#>  1 0-4   Female Maori      2010       NA   11 (5, 20) 43440        NA
#>  2 5-9   Female Maori      2010       NA     3 (0, 7) 36340        NA
#>  3 10-14 Female Maori      2010       NA     3 (0, 8) 35520        NA
#>  4 15-19 Female Maori      2010       NA   14 (7, 23) 34960        NA
#>  5 20-24 Female Maori      2010       NA   12 (5, 19) 31060        NA
#>  6 25-29 Female Maori      2010       NA    8 (3, 15) 24000        NA
#>  7 30-34 Female Maori      2010       NA    8 (3, 14) 23180        NA
#>  8 35-39 Female Maori      2010       NA    7 (2, 13) 24260        NA
#>  9 40-44 Female Maori      2010       NA    7 (2, 13) 22660        NA
#> 10 45-49 Female Maori      2010       NA    6 (2, 12) 21730        NA
#> # ℹ 230 more rows
#> # ℹ 2 more variables: .fitted <rdbl<1000>>, .expected <rdbl<1000>>
…
To deal with measurement error, we add a ‘data model’ to our
model.

mod <- mod |>
  set_datamod_outcome_rr3() |>
  fit()

The results from calling augment() now include a
variable called .injuries with estimated values for the
true, unrounded injury counts.

mod |>
  augment()
#> # A tibble: 912 × 10
#>    age   sex    ethnicity  year injuries    .injuries  popn .observed
#>    <fct> <chr>  <chr>     <int>    <int> <rdbl<1000>> <int>     <dbl>
#>  1 0-4   Female Maori      2000       12  12 (10, 14) 35830 0.000335 
#>  2 5-9   Female Maori      2000        6     5 (4, 8) 35120 0.000171 
#>  3 10-14 Female Maori      2000        3     3 (1, 5) 32830 0.0000914
#>  4 15-19 Female Maori      2000        6     7 (5, 8) 27130 0.000221 
#>  5 20-24 Female Maori      2000        6     6 (4, 8) 24380 0.000246 
#>  6 25-29 Female Maori      2000        6     6 (4, 8) 24160 0.000248 
#>  7 30-34 Female Maori      2000       12  11 (10, 14) 22560 0.000532 
#>  8 35-39 Female Maori      2000        3     4 (2, 5) 22230 0.000135 
#>  9 40-44 Female Maori      2000        6     6 (4, 8) 18130 0.000331 
#> 10 45-49 Female Maori      2000        6     6 (4, 8) 13770 0.000436 
#> # ℹ 902 more rows
#> # ℹ 2 more variables: .fitted <rdbl<1000>>, .expected <rdbl<1000>>

Model checking

Replicate data

A standard Bayesian approach to checking a model is to use the model
to generate simulate data and see if the simulated data looks like the
actual data. Function replicate_data() creates multiple
sets of simulated data.

rep_data <- mod |>
  replicate_data()
rep_data
#> # A tibble: 18,240 × 7
#>    .replicate age   sex    ethnicity  year injuries  popn
#>    <fct>      <fct> <chr>  <chr>     <int>    <dbl> <int>
#>  1 Original   0-4   Female Maori      2000       12 35830
#>  2 Original   5-9   Female Maori      2000        6 35120
#>  3 Original   10-14 Female Maori      2000        3 32830
#>  4 Original   15-19 Female Maori      2000        6 27130
#>  5 Original   20-24 Female Maori      2000        6 24380
#>  6 Original   25-29 Female Maori      2000        6 24160
#>  7 Original   30-34 Female Maori      2000       12 22560
#>  8 Original   35-39 Female Maori      2000        3 22230
#>  9 Original   40-44 Female Maori      2000        6 18130
#> 10 Original   45-49 Female Maori      2000        6 13770
#> # ℹ 18,230 more rows

Comparing full datasets is difficult, so the usual strategy is to
calculate summary measures that capture some important feature of the
data, and compare those instead. Here we see if the model is properly
capturing male-female differences in injury rates.

sex_ratio <- rep_data |>
  count(.replicate, year, sex, wt = injuries) |>
  pivot_wider(names_from = sex, values_from = n) |>
  mutate(ratio = Male / Female)
sex_ratio
#> # A tibble: 380 × 5
#>    .replicate  year Female  Male ratio
#>    <fct>      <int>  <dbl> <dbl> <dbl>
#>  1 Original    2000    279   873  3.13
#>  2 Original    2001    276   846  3.07
#>  3 Original    2002    303   855  2.82
#>  4 Original    2003    330   873  2.65
#>  5 Original    2004    306   840  2.75
#>  6 Original    2005    300   876  2.92
#>  7 Original    2006    291   828  2.85
#>  8 Original    2007    321   843  2.63
#>  9 Original    2008    339   864  2.55
#> 10 Original    2009    303   900  2.97
#> # ℹ 370 more rows
…
Prior predictive checks

Another way of gaining insights about a model is to look at estimates
based purely on the priors, without using data on the outcome variable.
In bage, this can be done by calling
augment(), components() or
forecast() on an unfitted version of the model.

mod |>
  unfit() |>
  components()
#> ℹ Model not fitted, so values drawn straight from prior distribution.
#> # A tibble: 90 × 4
#>    term        component level                   .fitted
#>    <chr>       <chr>     <chr>              <rdbl<1000>>
#>  1 (Intercept) effect    (Intercept)   0.061 (-2.1, 1.9)
#>  2 age         effect    0-4         -0.0028 (-1.9, 1.9)
#>  3 age         effect    5-9           0.036 (-2.6, 2.6)
#>  4 age         effect    10-14        -0.046 (-3.4, 3.5)
#>  5 age         effect    15-19        -0.039 (-4.4, 3.9)
#>  6 age         effect    20-24          -0.1 (-5.3, 4.8)
#>  7 age         effect    25-29        -0.057 (-5.5, 5.3)
#>  8 age         effect    30-34        -0.016 (-5.7, 5.8)
#>  9 age         effect    35-39        -0.058 (-6.2, 6.8)
#> 10 age         effect    40-44         -0.11 (-6.5, 7.2)
#> # ℹ 80 more rows
…
