6. Modelling Mortality • bage
…
library(dplyr, warn.conflicts = FALSE)
library(tidyr)
library(ggplot2)

The data

The Iceland deaths data is included in the bage
package. It contains counts of deaths, and estimates of the mid-year
population, disaggregated by age and sex, for the years 1998–2022.

dth <- bage::deaths
dth
#> # A tibble: 5,300 × 5
#>    age   sex     time deaths  popn
#>    <fct> <fct>  <int>  <int> <dbl>
#>  1 0     Female  1998      7 2051 
#>  2 1     Female  1998      1 2082.
#>  3 2     Female  1998      1 2088 
#>  4 3     Female  1998      3 2112.
#>  5 4     Female  1998      1 2204 
#>  6 5     Female  1998      0 2232.
#>  7 6     Female  1998      1 2175 
#>  8 7     Female  1998      0 2240 
#>  9 8     Female  1998      0 2261 
#> 10 9     Female  1998      0 2182.
#> # ℹ 5,290 more rows
…
Extracting rates

To extract estimated rates from the fitted model object, we use
function augment().

aug_base <- augment(mod_base)
aug_base
#> # A tibble: 5,300 × 8
#>    age   sex     time deaths  popn .observed                    .fitted
#>    <fct> <fct>  <int>  <int> <dbl>     <dbl>               <rdbl<1000>>
#>  1 0     Female  1998      7 2051   0.00341     0.0021 (0.0016, 0.0025)
#>  2 1     Female  1998      1 2082.  0.000480   5e-04 (0.00037, 0.00065)
#>  3 2     Female  1998      1 2088   0.000479 0.00026 (0.00019, 0.00036)
#>  4 3     Female  1998      3 2112.  0.00142  0.00017 (0.00011, 0.00024)
#>  5 4     Female  1998      1 2204   0.000454 0.00012 (8.1e-05, 0.00018)
#>  6 5     Female  1998      0 2232.  0        0.00011 (7.3e-05, 0.00016)
#>  7 6     Female  1998      1 2175   0.000460 9.6e-05 (6.2e-05, 0.00014)
#>  8 7     Female  1998      0 2240   0        7.6e-05 (4.9e-05, 0.00012)
#>  9 8     Female  1998      0 2261   0        7.7e-05 (5.1e-05, 0.00012)
#> 10 9     Female  1998      0 2182.  0        8.1e-05 (5.5e-05, 0.00012)
#> # ℹ 5,290 more rows
#> # ℹ 1 more variable: .expected <rdbl<1000>>
…
The .fitted and .expected columns both
consist of rvecs.
An rvec is a vector-like object that holds multiple draws, in this case
draws from posterior distributions.

Next we extract rates estimates for selected years, and summarize the
posterior distributions.

rates_base <- aug_base |>
  filter(time %in% c(1998, 2010, 2022)) |>
  select(age, sex, time, .observed, .fitted) |>
  mutate(draws_ci(.fitted))
rates_base
#> # A tibble: 636 × 8
#>    age   sex     time .observed                    .fitted .fitted.lower
#>    <fct> <fct>  <int>     <dbl>               <rdbl<1000>>         <dbl>
#>  1 0     Female  1998  0.00341     0.0021 (0.0016, 0.0025)     0.00163  
#>  2 1     Female  1998  0.000480   5e-04 (0.00037, 0.00065)     0.000374 
#>  3 2     Female  1998  0.000479 0.00026 (0.00019, 0.00036)     0.000189 
#>  4 3     Female  1998  0.00142  0.00017 (0.00011, 0.00024)     0.000112 
#>  5 4     Female  1998  0.000454 0.00012 (8.1e-05, 0.00018)     0.0000811
#>  6 5     Female  1998  0        0.00011 (7.3e-05, 0.00016)     0.0000732
#>  7 6     Female  1998  0.000460 9.6e-05 (6.2e-05, 0.00014)     0.0000621
#>  8 7     Female  1998  0        7.6e-05 (4.9e-05, 0.00012)     0.0000488
#>  9 8     Female  1998  0        7.7e-05 (5.1e-05, 0.00012)     0.0000511
#> 10 9     Female  1998  0        8.1e-05 (5.5e-05, 0.00012)     0.0000553
#> # ℹ 626 more rows
#> # ℹ 2 more variables: .fitted.mid <dbl>, .fitted.upper <dbl>
…
Extracting higher-level terms

We can gain insights into the model by extracting and graphing
estimates of the main effects and interactions, the
𝛃(m)\pmb{\beta}^{(m)}.

Estimates of the main effects and interactions, and of other
higher-level parameters, can be obtained with function
components().

comp_base <- components(mod_base)
comp_base
#> # A tibble: 350 × 4
#>    term        component level                 .fitted
#>    <chr>       <chr>     <chr>            <rdbl<1000>>
#>  1 (Intercept) effect    (Intercept) -5.4 (-5.5, -5.4)
#>  2 age         effect    0           -0.86 (-1, -0.72)
#>  3 age         effect    1             -2.3 (-2.5, -2)
#>  4 age         effect    2           -2.9 (-3.2, -2.7)
#>  5 age         effect    3           -3.4 (-3.7, -3.1)
#>  6 age         effect    4             -3.7 (-4, -3.3)
#>  7 age         effect    5           -3.7 (-4.1, -3.4)
#>  8 age         effect    6           -3.9 (-4.2, -3.5)
#>  9 age         effect    7           -4.1 (-4.5, -3.7)
#> 10 age         effect    8             -4 (-4.4, -3.7)
#> # ℹ 340 more rows
…
Life expectancy and life tables

lifeexp_hmd <- mod_hmd |>
  augment() |>
  lifeexp(mx = .fitted,
          by = c(time, sex))
lifeexp_hmd
#> # A tibble: 50 × 3
#>     time sex              ex
#>    <int> <fct>  <rdbl<1000>>
#>  1  1998 Female  82 (81, 82)
#>  2  1998 Male    78 (77, 78)
#>  3  1999 Female  82 (81, 82)
#>  4  1999 Male    78 (77, 78)
#>  5  2000 Female  82 (82, 82)
#>  6  2000 Male    78 (78, 79)
#>  7  2001 Female  82 (82, 83)
#>  8  2001 Male    79 (78, 79)
#>  9  2002 Female  82 (82, 83)
#> 10  2002 Male    79 (78, 79)
#> # ℹ 40 more rows

lifeexp_hmd <- mod_hmd |>
  augment() |>
  lifeexp(mx = .fitted,
          by = c(time, sex))
lifeexp_hmd
#> # A tibble: 50 × 3
#>     time sex              ex
#>    <int> <fct>  <rdbl<1000>>
#>  1  1998 Female  82 (81, 82)
#>  2  1998 Male    78 (77, 78)
#>  3  1999 Female  82 (81, 82)
#>  4  1999 Male    78 (77, 78)
#>  5  2000 Female  82 (82, 82)
#>  6  2000 Male    78 (78, 79)
#>  7  2001 Female  82 (82, 83)
#>  8  2001 Male    79 (78, 79)
#>  9  2002 Female  82 (82, 83)
#> 10  2002 Male    79 (78, 79)
#> # ℹ 40 more rows
…
